links:
https://math.stackexchange.com/questions/2802112/how-did-my-teacher-find-this-answer?rq=1
https://math.stackexchange.com/questions/2485531/how-many-ways-are-there-to-fill-a-3-%c3%97-3-grid-with-0s-and-1s/2485544#2485544

Null rotation

all 8 combintations not changed

right

this two {000, 111}

left

this two {000, 111}

(8 + 2 + 2) / ["left", "right", "null"].length



([000, 001, ...].len + [000, 111].len + [000, 111].len) / ["left", "right", "null"].length
= 12 / 3 = 4 = Necklaces ["000", "001", "011", "111"].len